…
How many mice were used to generate this data? How many cells were obtained from each mouse?


~~~
count(metadata, sample)
~~~
{: .language-r}



~~~
# A tibble: 34 x 2
   sample      n
   <chr>   <int>
 1 ARE1     2099
 2 ARE6     2510
 3 ARE7     2590
 4 ARE8     2841
 5 CISE12   1969
 6 Ciseq13  1555
 7 CS114    1716
 8 CS115    3484
 9 CS136    2152
10 CS137    1458
# ... with 24 more rows
# i Use `print(n = ...)` to see more rows
…
